<?xml version="1.0"?><svg width="2481" height="2073" xmlns="http://www.w3.org/2000/svg">
 <title>RedPin</title>
 <g>
  <title>Layer 1</title>
  <path d="m680.940002,1847.630005c-38.765991,-190.300049 -107.116028,-348.670044 -189.903015,-495.440063c-61.406982,-108.869995 -132.543976,-209.359985 -198.363983,-314.939941c-21.972015,-35.242981 -40.93399,-72.476013 -62.046997,-109.052979c-42.216003,-73.137024 -76.444,-157.934998 -74.269012,-267.932007c2.125,-107.473022 33.208008,-193.684021 78.029999,-264.172028c73.718994,-115.934998 197.201019,-210.988983 362.884003,-235.968994c135.466003,-20.423996 262.474976,14.082001 352.54303,66.748001c73.596008,43.03801 130.596008,100.526993 173.915955,168.280014c45.219971,70.716003 76.359985,154.259979 78.969971,263.231964c1.340088,55.830017 -7.799927,107.532043 -20.679932,150.41803c-13.030029,43.408997 -33.98999,79.695007 -52.640015,118.453979c-36.410034,75.658997 -82.050049,144.984009 -127.859985,214.343994c-136.437012,206.609985 -264.496033,417.310059 -320.580017,706.030029z" stroke-width="37" stroke-miterlimit="10" stroke="#000000" fill-rule="evenodd" fill="#ff0000" clip-rule="evenodd" id="svg_2"/>
  <path d="m534.61499,1767.224121c109.505066,-120.800903 175.830994,-235.838867 223.947388,-350.276978c35.687866,-84.905151 58.694763,-169.069702 88.990662,-253.904419c10.118347,-28.321289 23.723145,-56.536865 35.3797,-85.258179c23.315247,-57.407288 60.459412,-118.060547 140.647034,-177.984558c78.344421,-58.559875 161.379089,-93.701782 242.620544,-114.631042c133.598877,-34.420898 286.461182,-37.276489 418.190308,15.583801c107.709961,43.215942 170.311279,113.395996 194.527222,178.753723c19.788452,53.408569 17.831421,108.122437 -0.863525,163.001099c-19.526001,57.289429 -57.88916,116.002319 -134.058105,177.290771c-39.029907,31.390991 -82.291016,56.301636 -121.823975,74.825684c-40.01416,18.747681 -80.37793,30.367798 -120.927734,44.293335c-79.153442,27.168701 -160.110718,47.116211 -241.210205,67.039917c-241.572083,59.300781 -480.320313,124.235229 -725.419312,261.266846z" fill-rule="evenodd" fill="black" clip-rule="evenodd" opacity="0.09" id="svg_3" transform="rotate(-14.7844 1213.78 1263.64)"/>
  <text xml:space="preserve" y="481" x="471" transform="matrix(42.9718 0 0 22.9136 -19559.9 -10121.7)" text-anchor="middle" stroke-width="0" stroke-linejoin="null" stroke-linecap="null" stroke-dasharray="null" stroke="#000000" fill="#000000" font-size="24" font-family="Arial" id="svg_1"/>
  <text xml:space="preserve" y="479" x="447" transform="matrix(42.2778 0 0 21.6958 -18217.4 -9501.19)" text-anchor="middle" stroke-width="0" stroke-linejoin="null" stroke-linecap="null" stroke-dasharray="null" stroke="#000000" fill="#000000" font-size="24" font-family="Arial" id="svg_4"/>
  <text xml:space="preserve" y="459" x="361" transform="matrix(49.6891 0 0 22.6667 -17252 -9474.18)" text-anchor="middle" stroke-width="0" stroke-linejoin="null" stroke-linecap="null" stroke-dasharray="null" stroke="#000000" fill="#000000" font-size="24" font-family="Arial" id="svg_5"/>
 </g>
</svg>